<svg width="24" height="24" viewBox="0 0 24 24" fill="none" xmlns="http://www.w3.org/2000/svg">
<rect width="24" height="24" fill="white"/>
<g clip-path="url(#clip0_125_82)">
<path d="M15.2107 5H8.78931C7.78469 5.00118 6.82155 5.40079 6.11117 6.11117C5.40079 6.82155 5.00118 7.78469 5 8.78931V15.2107C5.00118 16.2153 5.40079 17.1785 6.11117 17.8888C6.82155 18.5992 7.78469 18.9988 8.78931 19H15.2107C16.2153 18.9988 17.1785 18.5992 17.8888 17.8888C18.5992 17.1785 18.9988 16.2153 19 15.2107V8.78931C18.9988 7.78469 18.5992 6.82155 17.8888 6.11117C17.1785 5.40079 16.2153 5.00118 15.2107 5V5ZM12.0006 15.8279C11.2433 15.8281 10.5029 15.6037 9.87317 15.1831C9.24341 14.7626 8.75253 14.1646 8.46263 13.465C8.17273 12.7654 8.09682 11.9956 8.2445 11.2528C8.39219 10.5101 8.75683 9.8278 9.29232 9.29232C9.8278 8.75683 10.5101 8.39219 11.2528 8.2445C11.9956 8.09682 12.7654 8.17273 13.465 8.46263C14.1646 8.75253 14.7626 9.24341 15.1831 9.87317C15.6037 10.5029 15.8281 11.2433 15.8279 12.0006C15.8267 13.0153 15.4231 13.9881 14.7056 14.7056C13.9881 15.4231 13.0153 15.8267 12.0006 15.8279ZM15.9196 9.07443C15.6958 9.07443 15.477 9.00807 15.2909 8.88374C15.1048 8.7594 14.9598 8.58268 14.8742 8.37592C14.7885 8.16916 14.7661 7.94164 14.8098 7.72214C14.8534 7.50265 14.9612 7.30103 15.1195 7.14278C15.2777 6.98453 15.4793 6.87676 15.6988 6.8331C15.9183 6.78944 16.1458 6.81185 16.3526 6.89749C16.5594 6.98313 16.7361 7.12817 16.8604 7.31425C16.9848 7.50033 17.0511 7.7191 17.0511 7.9429C17.0508 8.24291 16.9315 8.53055 16.7194 8.74269C16.5072 8.95483 16.2196 9.07414 15.9196 9.07443Z" fill="#124A3D"/>
<path d="M12.0006 9.40211C11.4876 9.40631 10.9873 9.56226 10.5627 9.85033C10.1382 10.1384 9.80846 10.5457 9.61503 11.0208C9.42161 11.496 9.37318 12.0178 9.47583 12.5205C9.57848 13.0231 9.82763 13.4841 10.1919 13.8454C10.5561 14.2067 11.0191 14.4521 11.5226 14.5506C12.0261 14.6492 12.5475 14.5965 13.0211 14.3992C13.4946 14.2019 13.8992 13.8689 14.1838 13.442C14.4684 13.0152 14.6203 12.5136 14.6203 12.0006C14.6168 11.3089 14.3389 10.6468 13.8478 10.1596C13.3567 9.67245 12.6923 9.40003 12.0006 9.40211Z" fill="#124A3D"/>
<path d="M15.9196 7.63208C15.8581 7.63208 15.798 7.65031 15.7469 7.68447C15.6958 7.71862 15.6559 7.76716 15.6324 7.82396C15.6089 7.88076 15.6027 7.94326 15.6147 8.00355C15.6267 8.06385 15.6563 8.11924 15.6998 8.16271C15.7433 8.20618 15.7986 8.23578 15.8589 8.24778C15.9192 8.25977 15.9817 8.25362 16.0385 8.23009C16.0953 8.20657 16.1439 8.16672 16.178 8.1156C16.2122 8.06449 16.2304 8.0044 16.2304 7.94292C16.2304 7.9021 16.2224 7.86167 16.2067 7.82396C16.1911 7.78625 16.1682 7.75198 16.1394 7.72312C16.1105 7.69425 16.0762 7.67136 16.0385 7.65574C16.0008 7.64011 15.9604 7.63208 15.9196 7.63208Z" fill="#124A3D"/>
</g>
<defs>
<clipPath id="clip0_125_82">
<rect width="14" height="14" fill="white" transform="translate(5 5)"/>
</clipPath>
</defs>
</svg>
